…
<!-------------------------- Start your work below ---------------------------->

``` r
#this code creates a new dataframe with 3 groups to plot
vars_long<- cancer_compact %>%
  pivot_longer(cols = c("radius", "texture", "smoothness"), 
               names_to = "attribute", values_to = "average") %>%
  select(c("ID", "diagnosis", "attribute", "average"))
vars_long
```

    ## # A tibble: 1,707 × 4
    ##         ID diagnosis attribute  average
    ##      <dbl> <fct>     <chr>        <dbl>
    ##  1 8510426 B         radius     13.5   
    ##  2 8510426 B         texture    14.4   
    ##  3 8510426 B         smoothness  0.0978
    ##  4 8510653 B         radius     13.1   
    ##  5 8510653 B         texture    15.7   
    ##  6 8510653 B         smoothness  0.108 
    ##  7 8510824 B         radius      9.50  
    ##  8 8510824 B         texture    12.4   
    ##  9 8510824 B         smoothness  0.102 
    ## 10  854941 B         radius     13.0   
    ## # … with 1,697 more rows
…
