…
#### 1. Is radius, texture, or smoothness a better predictor of a malignant diagnosis?

**Summarize option 3:** *3 numeric variables were transformed into a
categorical variable with 3 groups to make plotting easier.*

``` r
vars_long<- cancer_compact %>%
  pivot_longer(cols = c("radius", "texture", "smoothness"), 
               names_to = "attribute", values_to = "average") %>%
  select(c("ID", "diagnosis", "attribute", "average"))
vars_long
```

    ## # A tibble: 1,707 × 4
    ##          ID diagnosis attribute  average
    ##       <dbl> <chr>     <chr>        <dbl>
    ##  1   842302 M         radius     18.0   
    ##  2   842302 M         texture    10.4   
    ##  3   842302 M         smoothness  0.118 
    ##  4   842517 M         radius     20.6   
    ##  5   842517 M         texture    17.8   
    ##  6   842517 M         smoothness  0.0847
    ##  7 84300903 M         radius     19.7   
    ##  8 84300903 M         texture    21.2   
    ##  9 84300903 M         smoothness  0.110 
    ## 10 84348301 M         radius     11.4   
    ## # … with 1,697 more rows
…
